{
    "level": 1,
	"type" : [ {
        "name" :"neck",
        "method": "To stretch your neck, slowly flex your head forward and backward, side to side and look right and left. This can be done almost any time to lessen tension and strain. Never roll your head around your neck––this could cause damage to the joints of the neck."},
	{"name":  "shoulders",
    "method": "Roll your shoulders forward around 10 times, then backward. This helps release the tension off your shoulders."},
	{"name" : "Arms and shoulders",
    "method":"A good stretch for your arms and shoulders is to brace your hands on the edge your desk, each about a shoulder width away from your body. Twist your hands in so they point toward your body and lean forward, hunching your shoulders. Take this a step further and push your shoulders and elbows closer to the desk."},
	{"name" : "Wrists",
    "method" : "Roll your wrists regularly, around every hour or so. Roll the wrists 10 times clockwise, then 10 times counterclockwise. This will help minimize the potential for getting carpal tunnel syndrome if you spend a lot of time typing."},
	{"name" : "Ankles",
    "method" : "Roll your ankles regularly. As with your wrists, roll the ankles in a clockwise motion three times, then counterclockwise. This helps improve blood circulation, and prevents that tingling feeling you can get when blood circulation is cut off, also known as \"pins and needles\""},
	{"name": "Chest",
    "method": "Notice if you tend to hunch in front of the keyboard. To counter that, perform the following exercise: Open your arms wide as if you were going to hug someone, rotate your wrists externally (thumbs going up and back) and pull your shoulders back. This stretch is moving your body the opposite way to being hunched and you should feel a good stretch across your upper chest."},
	{"name" : "Abdomen",
    "method" : "Contract your abdominal and gluteal muscles, hold them there for a few seconds, then release. Repeat this every few minutes all day long while you're working at your desk. You can also perform kegels (pelvic floor exercises) while sitting."},
	{"name" : "Calves",
    "method" : "Stretch your calves. While sitting, lift up your legs on the balls of your feet and set them down. Repeat until your legs are comfortably tired. Repeat about 10 minutes later, and continue doing this routine for about an hour or so. This will exercise your calves, and will help prevent blood clots from developing in your legs. Blood clots are very common among middle-aged computer users."
		}]
,
"level2": {}
}